<?xml version="1.0" encoding="UTF-8" standalone="yes"?>
<!-- Created with sK1/UniConvertor (http://sk1project.org/) -->
<svg xmlns="http://www.w3.org/2000/svg" xmlns:xlink="http://www.w3.org/1999/xlink"
  width="104.8pt" height="100.8pt" viewBox="0 0 104.8 100.8"
  fill-rule="evenodd">
<g>
<path style="stroke:none; fill:#ffffff" d="M 0 0L 0 100.8L 104.8 100.8L 104.8 0L 0 0z"/>
<path style="stroke:none; fill:#c3d2f6" d="M 80.8 4L 80.8 4.8L 83.2 4.8C 82.2016 4.25215 81.9616 4.20097 80.8 4z"/>
<path style="stroke:none; fill:#7d91ad" d="M 79.2 4.8L 80 5.60001L 79.2 4.8z"/>
<path style="stroke:none; fill:#2c457b" d="M 36.8 51.2C 28.2733 46.2713 20.7319 38.1229 14.7402 30.4C 11.8414 26.6638 8.12856 22.5891 12 18.4L 12 17.6C 5.27979 18.6718 7.74443 24.6678 10.5766 28.8C 16.247 37.0734 25.1965 47.7142 34.4 52C 31.3238 62.6783 23.363 71.3738 20.8093 82.4C 19.0721 89.9008 18.383 95.8888 28 93.6L 28 92.8C 20.9736 93.1592 21.2488 87.7808 23.0895 82.4C 26.4251 72.649 32.9442 64.0568 36 54.4C 50.328 63.8682 63.7072 74.3118 80 80.4288C 90.0176 84.1904 101.19 84.2688 93.6 71.2L 92.8 71.2C 95.9728 82.3288 89.8272 81.54 80.8 77.9586C 69.7805 73.5868 59.4643 67.8954 49.6 61.3161C 46.7918 59.443 39.7313 55.861 38.9815 52.308C 38.4275 49.683 42.0558 45.955 43.4352 44C 48.7695 36.4395 54.545 29.1594 60.8716 22.4006C 66.6276 16.2513 75.6348 5.65594 84.8 8.8C 83.24 -0.181534 71.3464 9.81504 68 12.6037C 56.9034 21.8509 41.2942 37.0962 36.8 51.2z"/>
<path style="stroke:none; fill:#7585a9" d="M 83.2 4.8L 84 5.60001L 83.2 4.8z"/>
<path style="stroke:none; fill:#a8b8da" d="M 76.8 5.60001L 77.6 6.4L 76.8 5.60001M 75.2 6.4L 76 7.2L 75.2 6.4M 84.8 6.4L 85.6 7.2L 84.8 6.4z"/>
<path style="stroke:none; fill:#63799f" d="M 74.4 7.2L 75.2 8L 74.4 7.2z"/>
<path style="stroke:none; fill:#8599c1" d="M 79.2 7.2L 80 8L 79.2 7.2z"/>
<path style="stroke:none; fill:#b9c7e0" d="M 80.5336 7.46667C 80.1776 7.82223 81.0224 7.77776 81.0664 7.73333C 81.4224 7.37777 80.5776 7.42223 80.5336 7.46667z"/>
<path style="stroke:none; fill:#7d91ad" d="M 81.6 7.2L 82.4 8L 81.6 7.2z"/>
<path style="stroke:none; fill:#63799f" d="M 84.8 7.2C 84.6256 8.5492 84.6208 9.05288 84.8 10.4L 85.6 10.4C 85.4608 9.05184 85.3464 8.4048 84.8 7.2z"/>
<path style="stroke:none; fill:#b9c7e0" d="M 72.8 8L 73.6 8.8L 72.8 8z"/>
<path style="stroke:none; fill:#7d91ad" d="M 76.8 8L 77.6 8.8L 76.8 8z"/>
<path style="stroke:none; fill:#63799f" d="M 83.2 8L 84 8.8L 83.2 8z"/>
<path style="stroke:none; fill:#8599c1" d="M 72 8.8L 72.8 9.60001L 72 8.8M 74.4 9.60001L 75.2 10.4L 74.4 9.60001z"/>
<path style="stroke:none; fill:#94a2c2" d="M 84 9.60001L 84.8 10.4L 84 9.60001z"/>
<path style="stroke:none; fill:#b9c7e0" d="M 69.6 10.4L 70.4 11.2L 69.6 10.4M 73.6 10.4L 74.4 11.2L 73.6 10.4z"/>
<path style="stroke:none; fill:#94a2c2" d="M 84.8 10.4L 85.6 11.2L 84.8 10.4z"/>
<path style="stroke:none; fill:#a6b3c8" d="M 68.8 11.2L 69.6 12L 68.8 11.2z"/>
<path style="stroke:none; fill:#63799f" d="M 72 11.2L 72.8 12L 72 11.2z"/>
<path style="stroke:none; fill:#8599c1" d="M 68 12L 68.8 12.8L 68 12M 71.2 12L 72 12.8L 71.2 12z"/>
<path style="stroke:none; fill:#63799f" d="M 67.2 12.8L 68 13.6L 67.2 12.8z"/>
<path style="stroke:none; fill:#a8b8da" d="M 70.4 12.8L 71.2 13.6L 70.4 12.8z"/>
<path style="stroke:none; fill:#b9c7e0" d="M 69.6 13.6L 70.4 14.4L 69.6 13.6M 63.2 16L 64 16.8L 63.2 16z"/>
<path style="stroke:none; fill:#7585a9" d="M 10.1334 17.0666C 9.77776 17.4222 10.6222 17.3778 10.6666 17.3334C 11.0222 16.9778 10.1778 17.0222 10.1334 17.0666z"/>
<path style="stroke:none; fill:#5b6985" d="M 11.7334 17.0666C 11.3778 17.4222 12.2222 17.3778 12.2666 17.3334C 12.6222 16.9778 11.7778 17.0222 11.7334 17.0666z"/>
<path style="stroke:none; fill:#94a2c2" d="M 12.8 16.8L 13.6 17.6L 12.8 16.8z"/>
<path style="stroke:none; fill:#b9c7e0" d="M 13.6 16.8L 14.4 17.6L 13.6 16.8z"/>
<path style="stroke:none; fill:#c3d2f6" d="M 62.4 16.8L 63.2 17.6L 62.4 16.8z"/>
<path style="stroke:none; fill:#63799f" d="M 65.6 16.8L 66.4 17.6L 65.6 16.8z"/>
<path style="stroke:none; fill:#7585a9" d="M 8 17.6L 8.8 18.4L 8 17.6z"/>
<path style="stroke:none; fill:#94a2c2" d="M 12 17.6L 12.8 18.4L 12 17.6z"/>
<path style="stroke:none; fill:#63799f" d="M 64.8 17.6L 65.6 18.4L 64.8 17.6z"/>
<path style="stroke:none; fill:#7585a9" d="M 7.2 18.4L 8 19.2L 7.2 18.4z"/>
<path style="stroke:none; fill:#63799f" d="M 10.4 18.4L 11.2 19.2L 10.4 18.4M 64 18.4L 64.8 19.2L 64 18.4z"/>
<path style="stroke:none; fill:#c3d2f6" d="M 6.4 19.2L 6.4 22.4L 7.2 22.4C 7.06071 21.0518 6.94643 20.4049 6.4 19.2z"/>
<path style="stroke:none; fill:#7585a9" d="M 63.2 19.2L 64 20L 63.2 19.2z"/>
<path style="stroke:none; fill:#94a2c2" d="M 9.6 20L 10.4 20.8L 9.6 20z"/>
<path style="stroke:none; fill:#7585a9" d="M 62.4 20L 63.2 20.8L 62.4 20z"/>
<path style="stroke:none; fill:#cfd9ef" d="M 9.6 20.8L 9.6 23.2L 10.4 23.2C 10.199 22.0387 10.1478 21.7987 9.6 20.8z"/>
<path style="stroke:none; fill:#7585a9" d="M 61.6 20.8L 62.4 21.6L 61.6 20.8M 60.8 21.6L 61.6 22.4L 60.8 21.6M 60 22.4L 60.8 23.2L 60 22.4z"/>
<path style="stroke:none; fill:#a6b3c8" d="M 7.2 23.2L 8 24L 7.2 23.2z"/>
<path style="stroke:none; fill:#7585a9" d="M 9.6 23.2L 10.4 24L 9.6 23.2z"/>
<path style="stroke:none; fill:#63799f" d="M 56.8 23.2L 57.6 24L 56.8 23.2z"/>
<path style="stroke:none; fill:#7d91ad" d="M 59.2 23.2L 60 24L 59.2 23.2z"/>
<path style="stroke:none; fill:#63799f" d="M 56 24L 56.8 24.8L 56 24z"/>
<path style="stroke:none; fill:#7585a9" d="M 58.4 24L 59.2 24.8L 58.4 24z"/>
<path style="stroke:none; fill:#94a2c2" d="M 8 24.8L 8.8 25.6L 8 24.8z"/>
<path style="stroke:none; fill:#7d91ad" d="M 10.4 24.8L 11.2 25.6L 10.4 24.8M 55.2 24.8L 56 25.6L 55.2 24.8z"/>
<path style="stroke:none; fill:#b9c7e0" d="M 11.2 25.6L 12 26.4L 11.2 25.6z"/>
<path style="stroke:none; fill:#8599c1" d="M 54.4 25.6L 55.2 26.4L 54.4 25.6z"/>
<path style="stroke:none; fill:#a6b3c8" d="M 8.8 26.4L 9.6 27.2L 8.8 26.4M 53.6 26.4L 54.4 27.2L 53.6 26.4z"/>
<path style="stroke:none; fill:#8599c1" d="M 12 27.2L 12.8 28L 12 27.2z"/>
<path style="stroke:none; fill:#a8b8da" d="M 52.8 27.2L 53.6 28L 52.8 27.2z"/>
<path style="stroke:none; fill:#b9c7e0" d="M 9.6 28L 10.4 28.8L 9.6 28M 12.8 28L 13.6 28.8L 12.8 28M 52 28L 52.8 28.8L 52 28M 55.2 28L 56 28.8L 55.2 28z"/>
<path style="stroke:none; fill:#a6b3c8" d="M 10.4 28.8L 11.2 29.6L 10.4 28.8z"/>
<path style="stroke:none; fill:#94a2c2" d="M 54.4 28.8L 55.2 29.6L 54.4 28.8z"/>
<path style="stroke:none; fill:#7d91ad" d="M 11.2 29.6L 12 30.4L 11.2 29.6M 53.6 29.6L 54.4 30.4L 53.6 29.6M 14.4 30.4L 15.2 31.2L 14.4 30.4z"/>
<path style="stroke:none; fill:#63799f" d="M 50.4 30.4L 51.2 31.2L 50.4 30.4M 52.8 30.4L 53.6 31.2L 52.8 30.4z"/>
<path style="stroke:none; fill:#a6b3c8" d="M 15.2 31.2L 16 32L 15.2 31.2z"/>
<path style="stroke:none; fill:#8599c1" d="M 49.6 31.2L 50.4 32L 49.6 31.2z"/>
<path style="stroke:none; fill:#a8b8da" d="M 12.8 32L 13.6 32.8L 12.8 32z"/>
<path style="stroke:none; fill:#b9c7e0" d="M 16 32L 16.8 32.8L 16 32z"/>
<path style="stroke:none; fill:#a6b3c8" d="M 48.8 32L 49.6 32.8L 48.8 32z"/>
<path style="stroke:none; fill:#94a2c2" d="M 13.6 32.8L 14.4 33.6L 13.6 32.8z"/>
<path style="stroke:none; fill:#b9c7e0" d="M 48 32.8L 48.8 33.6L 48 32.8z"/>
<path style="stroke:none; fill:#7d91ad" d="M 14.4 33.6L 15.2 34.4L 14.4 33.6z"/>
<path style="stroke:none; fill:#a6b3c8" d="M 50.4 33.6L 51.2 34.4L 50.4 33.6z"/>
<path style="stroke:none; fill:#63799f" d="M 15.2 34.4L 16 35.2L 15.2 34.4M 17.6 34.4L 18.4 35.2L 17.6 34.4z"/>
<path style="stroke:none; fill:#7d91ad" d="M 49.6 34.4L 50.4 35.2L 49.6 34.4z"/>
<path style="stroke:none; fill:#7585a9" d="M 18.4 35.2L 19.2 36L 18.4 35.2z"/>
<path style="stroke:none; fill:#7d91ad" d="M 46.4 35.2L 47.2 36L 46.4 35.2z"/>
<path style="stroke:none; fill:#7585a9" d="M 19.2 36L 20 36.8L 19.2 36z"/>
<path style="stroke:none; fill:#a8b8da" d="M 45.6 36L 46.4 36.8L 45.6 36z"/>
<path style="stroke:none; fill:#7585a9" d="M 20 36.8L 20.8 37.6L 20 36.8z"/>
<path style="stroke:none; fill:#a8b8da" d="M 48 36.8L 48.8 37.6L 48 36.8z"/>
<path style="stroke:none; fill:#b9c7e0" d="M 17.6 37.6L 18.4 38.4L 17.6 37.6z"/>
<path style="stroke:none; fill:#7585a9" d="M 20.8 37.6L 21.6 38.4L 20.8 37.6z"/>
<path style="stroke:none; fill:#7d91ad" d="M 47.2 37.6L 48 38.4L 47.2 37.6z"/>
<path style="stroke:none; fill:#b9c7e0" d="M 18.4 38.4L 19.2 39.2L 18.4 38.4z"/>
<path style="stroke:none; fill:#7585a9" d="M 21.6 38.4L 22.4 39.2L 21.6 38.4z"/>
<path style="stroke:none; fill:#7d91ad" d="M 44 38.4L 44.8 39.2L 44 38.4z"/>
<path style="stroke:none; fill:#a8b8da" d="M 19.2 39.2L 20 40L 19.2 39.2z"/>
<path style="stroke:none; fill:#7585a9" d="M 22.4 39.2L 23.2 40L 22.4 39.2z"/>
<path style="stroke:none; fill:#a8b8da" d="M 43.2 39.2L 44 40L 43.2 39.2z"/>
<path style="stroke:none; fill:#b9c7e0" d="M 20 40L 20.8 40.8L 20 40z"/>
<path style="stroke:none; fill:#7585a9" d="M 23.2 40L 24 40.8L 23.2 40z"/>
<path style="stroke:none; fill:#a8b8da" d="M 45.6 40L 46.4 40.8L 45.6 40M 20.8 40.8L 21.6 41.6L 20.8 40.8z"/>
<path style="stroke:none; fill:#7585a9" d="M 24 40.8L 24.8 41.6L 24 40.8M 44.8 40.8L 45.6 41.6L 44.8 40.8z"/>
<path style="stroke:none; fill:#b9c7e0" d="M 21.6 41.6L 22.4 42.4L 21.6 41.6z"/>
<path style="stroke:none; fill:#63799f" d="M 24.8 41.6L 25.6 42.4L 24.8 41.6z"/>
<path style="stroke:none; fill:#8599c1" d="M 41.6 41.6L 42.4 42.4L 41.6 41.6z"/>
<path style="stroke:none; fill:#a8b8da" d="M 22.4 42.4L 23.2 43.2L 22.4 42.4z"/>
<path style="stroke:none; fill:#63799f" d="M 25.6 42.4L 26.4 43.2L 25.6 42.4z"/>
<path style="stroke:none; fill:#b9c7e0" d="M 40.8 42.4L 41.6 43.2L 40.8 42.4M 44 42.4L 44.8 43.2L 44 42.4M 23.2 43.2L 24 44L 23.2 43.2z"/>
<path style="stroke:none; fill:#63799f" d="M 26.4 43.2L 27.2 44L 26.4 43.2z"/>
<path style="stroke:none; fill:#8599c1" d="M 43.2 43.2L 44 44L 43.2 43.2z"/>
<path style="stroke:none; fill:#b9c7e0" d="M 24 44L 24.8 44.8L 24 44z"/>
<path style="stroke:none; fill:#7d91ad" d="M 40 44L 40.8 44.8L 40 44z"/>
<path style="stroke:none; fill:#b9c7e0" d="M 39.2 44.8L 40 45.6L 39.2 44.8z"/>
<path style="stroke:none; fill:#94a2c2" d="M 41.6 45.6L 42.4 46.4L 41.6 45.6z"/>
<path style="stroke:none; fill:#63799f" d="M 27.2 46.4L 28 47.2L 27.2 46.4z"/>
<path style="stroke:none; fill:#c3d2f6" d="M 30.4 46.4L 31.2 47.2L 30.4 46.4z"/>
<path style="stroke:none; fill:#7d91ad" d="M 38.4 46.4L 39.2 47.2L 38.4 46.4z"/>
<path style="stroke:none; fill:#63799f" d="M 40.8 46.4L 41.6 47.2L 40.8 46.4M 28 47.2L 28.8 48L 28 47.2z"/>
<path style="stroke:none; fill:#a8b8da" d="M 31.2 47.2L 32 48L 31.2 47.2z"/>
<path style="stroke:none; fill:#7585a9" d="M 28.8 48L 29.6 48.8L 28.8 48z"/>
<path style="stroke:none; fill:#8599c1" d="M 32 48L 32.8 48.8L 32 48z"/>
<path style="stroke:none; fill:#94a2c2" d="M 40 48L 40.8 48.8L 40 48z"/>
<path style="stroke:none; fill:#7d91ad" d="M 29.6 48.8L 30.4 49.6L 29.6 48.8z"/>
<path style="stroke:none; fill:#7585a9" d="M 32.8 48.8L 33.6 49.6L 32.8 48.8z"/>
<path style="stroke:none; fill:#8599c1" d="M 36.8 48.8L 37.6 49.6L 36.8 48.8z"/>
<path style="stroke:none; fill:#94a2c2" d="M 30.4 49.6L 31.2 50.4L 30.4 49.6z"/>
<path style="stroke:none; fill:#a8b8da" d="M 31.2 50.4L 32 51.2L 31.2 50.4M 35.2 50.4L 36 51.2L 35.2 50.4z"/>
<path style="stroke:none; fill:#63799f" d="M 36 50.4L 36.8 51.2L 36 50.4z"/>
<path style="stroke:none; fill:#94a2c2" d="M 38.4 50.4L 39.2 51.2L 38.4 50.4z"/>
<path style="stroke:none; fill:#63799f" d="M 33.6 52L 34.4 52.8L 33.6 52z"/>
<path style="stroke:none; fill:#a8b8da" d="M 39.2 53.6L 40 54.4L 39.2 53.6z"/>
<path style="stroke:none; fill:#5b6985" d="M 36.5334 54.6666C 36.1778 55.0222 37.0222 54.9778 37.0666 54.9334C 37.4222 54.5778 36.5778 54.6222 36.5334 54.6666z"/>
<path style="stroke:none; fill:#8599c1" d="M 40 54.4L 40.8 55.2L 40 54.4z"/>
<path style="stroke:none; fill:#a8b8da" d="M 32.8 55.2L 33.6 56L 32.8 55.2z"/>
<path style="stroke:none; fill:#63799f" d="M 37.6 55.2L 38.4 56L 37.6 55.2z"/>
<path style="stroke:none; fill:#b9c7e0" d="M 35.2 56L 36 56.8L 35.2 56z"/>
<path style="stroke:none; fill:#8599c1" d="M 38.4 56L 39.2 56.8L 38.4 56z"/>
<path style="stroke:none; fill:#b9c7e0" d="M 42.4 56L 43.2 56.8L 42.4 56z"/>
<path style="stroke:none; fill:#94a2c2" d="M 32 56.8L 32.8 57.6L 32 56.8z"/>
<path style="stroke:none; fill:#a8b8da" d="M 39.2 56.8L 40 57.6L 39.2 56.8z"/>
<path style="stroke:none; fill:#7d91ad" d="M 43.2 56.8L 44 57.6L 43.2 56.8z"/>
<path style="stroke:none; fill:#63799f" d="M 40.8 57.6L 41.6 58.4L 40.8 57.6z"/>
<path style="stroke:none; fill:#7585a9" d="M 31.2 58.4L 32 59.2L 31.2 58.4M 33.6 58.4L 34.4 59.2L 33.6 58.4z"/>
<path style="stroke:none; fill:#8599c1" d="M 41.6 58.4L 42.4 59.2L 41.6 58.4z"/>
<path style="stroke:none; fill:#94a2c2" d="M 45.6 58.4L 46.4 59.2L 45.6 58.4z"/>
<path style="stroke:none; fill:#b9c7e0" d="M 30.4 59.2L 31.2 60L 30.4 59.2z"/>
<path style="stroke:none; fill:#a8b8da" d="M 42.4 59.2L 43.2 60L 42.4 59.2z"/>
<path style="stroke:none; fill:#63799f" d="M 46.4 59.2L 47.2 60L 46.4 59.2z"/>
<path style="stroke:none; fill:#b9c7e0" d="M 82.4 59.2L 83.2 60L 82.4 59.2z"/>
<path style="stroke:none; fill:#2c457b" d="M 86.4 64C 85.8256 56.6222 79.8848 62.9126 86.4 64z"/>
<path style="stroke:none; fill:#5b6985" d="M 30.4 60L 31.2 60.8L 30.4 60z"/>
<path style="stroke:none; fill:#94a2c2" d="M 32.8 60L 33.6 60.8L 32.8 60z"/>
<path style="stroke:none; fill:#63799f" d="M 44 60L 44.8 60.8L 44 60z"/>
<path style="stroke:none; fill:#a8b8da" d="M 48 60L 48.8 60.8L 48 60M 29.6 60.8L 30.4 61.6L 29.6 60.8z"/>
<path style="stroke:none; fill:#8599c1" d="M 44.8 60.8L 45.6 61.6L 44.8 60.8z"/>
<path style="stroke:none; fill:#7585a9" d="M 48.8 60.8L 49.6 61.6L 48.8 60.8M 81.6 60.8L 81.6 63.2L 82.4 63.2C 82.1992 62.0387 82.148 61.7987 81.6 60.8z"/>
<path style="stroke:none; fill:#63799f" d="M 86.6664 61.3334C 86.6224 61.3778 86.5776 62.2222 86.9336 61.8666C 86.9776 61.8222 87.0224 60.9778 86.6664 61.3334z"/>
<path style="stroke:none; fill:#a8b8da" d="M 32 61.6L 32.8 62.4L 32 61.6z"/>
<path style="stroke:none; fill:#b9c7e0" d="M 45.6 61.6L 46.4 62.4L 45.6 61.6z"/>
<path style="stroke:none; fill:#a6b3c8" d="M 50.4 61.6L 51.2 62.4L 50.4 61.6z"/>
<path style="stroke:none; fill:#a8b8da" d="M 28.8 62.4L 29.6 63.2L 28.8 62.4z"/>
<path style="stroke:none; fill:#94a2c2" d="M 47.2 62.4L 48 63.2L 47.2 62.4z"/>
<path style="stroke:none; fill:#63799f" d="M 51.2 62.4L 52 63.2L 51.2 62.4z"/>
<path style="stroke:none; fill:#a6b3c8" d="M 86.6664 62.9334C 86.6224 62.9778 86.5776 63.8222 86.9336 63.4666C 86.9776 63.4222 87.0224 62.5778 86.6664 62.9334z"/>
<path style="stroke:none; fill:#b9c7e0" d="M 48 63.2L 48.8 64L 48 63.2z"/>
<path style="stroke:none; fill:#63799f" d="M 48.8 63.2L 49.6 64L 48.8 63.2z"/>
<path style="stroke:none; fill:#94a2c2" d="M 52.8 63.2L 53.6 64L 52.8 63.2z"/>
<path style="stroke:none; fill:#7d91ad" d="M 82.4 63.2L 83.2 64L 82.4 63.2z"/>
<path style="stroke:none; fill:#a6b3c8" d="M 28 64L 28.8 64.8L 28 64z"/>
<path style="stroke:none; fill:#7585a9" d="M 30.4 64L 31.2 64.8L 30.4 64z"/>
<path style="stroke:none; fill:#a6b3c8" d="M 49.6 64L 50.4 64.8L 49.6 64z"/>
<path style="stroke:none; fill:#a8b8da" d="M 83.7336 64.2666C 83.3776 64.6222 84.2224 64.5778 84.2664 64.5334C 84.6224 64.1778 83.7776 64.2222 83.7336 64.2666z"/>
<path style="stroke:none; fill:#cfd9ef" d="M 85.3336 64.2666C 84.9776 64.6222 85.8224 64.5778 85.8664 64.5334C 86.2224 64.1778 85.3776 64.2222 85.3336 64.2666z"/>
<path style="stroke:none; fill:#48546b" d="M 86.4 64C 87.2824 65.1653 87.6344 65.5173 88.8 66.4C 87.9176 65.2347 87.5656 64.8827 86.4 64z"/>
<path style="stroke:none; fill:#94a2c2" d="M 87.2 64L 88 64.8L 87.2 64z"/>
<path style="stroke:none; fill:#63799f" d="M 51.2 64.8L 52 65.6L 51.2 64.8z"/>
<path style="stroke:none; fill:#7d91ad" d="M 55.2 64.8L 56 65.6L 55.2 64.8M 88 64.8L 88.8 65.6L 88 64.8z"/>
<path style="stroke:none; fill:#94a2c2" d="M 27.2 65.6L 28 66.4L 27.2 65.6z"/>
<path style="stroke:none; fill:#7585a9" d="M 29.6 65.6L 30.4 66.4L 29.6 65.6z"/>
<path style="stroke:none; fill:#a6b3c8" d="M 52 65.6L 52.8 66.4L 52 65.6z"/>
<path style="stroke:none; fill:#a8b8da" d="M 56.8 65.6L 57.6 66.4L 56.8 65.6z"/>
<path style="stroke:none; fill:#a6b3c8" d="M 87.2 65.6L 88 66.4L 87.2 65.6z"/>
<path style="stroke:none; fill:#94a2c2" d="M 88.8 65.6L 89.6 66.4L 88.8 65.6z"/>
<path style="stroke:none; fill:#7585a9" d="M 53.6 66.4L 54.4 67.2L 53.6 66.4z"/>
<path style="stroke:none; fill:#63799f" d="M 57.6 66.4L 58.4 67.2L 57.6 66.4z"/>
<path style="stroke:none; fill:#8599c1" d="M 88 66.4L 88.8 67.2L 88 66.4z"/>
<path style="stroke:none; fill:#3b4460" d="M 88.8 66.4L 89.6 67.2L 88.8 66.4z"/>
<path style="stroke:none; fill:#a6b3c8" d="M 89.6 66.4L 90.4 67.2L 89.6 66.4z"/>
<path style="stroke:none; fill:#94a2c2" d="M 26.4 67.2L 27.2 68L 26.4 67.2z"/>
<path style="stroke:none; fill:#63799f" d="M 28.8 67.2L 29.6 68L 28.8 67.2z"/>
<path style="stroke:none; fill:#a8b8da" d="M 54.4 67.2L 55.2 68L 54.4 67.2z"/>
<path style="stroke:none; fill:#94a2c2" d="M 59.2 67.2L 60 68L 59.2 67.2z"/>
<path style="stroke:none; fill:#48546b" d="M 88.8 67.2L 92 72L 92.8 72C 92.06 69.4077 91.2096 68.4038 88.8 67.2z"/>
<path style="stroke:none; fill:#b9c7e0" d="M 90.4 67.2L 91.2 68L 90.4 67.2z"/>
<path style="stroke:none; fill:#7d91ad" d="M 56 68L 56.8 68.8L 56 68z"/>
<path style="stroke:none; fill:#8599c1" d="M 25.6 68.8L 26.4 69.6L 25.6 68.8z"/>
<path style="stroke:none; fill:#63799f" d="M 28 68.8L 28.8 69.6L 28 68.8z"/>
<path style="stroke:none; fill:#b9c7e0" d="M 56.8 68.8L 57.6 69.6L 56.8 68.8z"/>
<path style="stroke:none; fill:#63799f" d="M 57.6 68.8L 58.4 69.6L 57.6 68.8z"/>
<path style="stroke:none; fill:#7d91ad" d="M 61.6 68.8L 62.4 69.6L 61.6 68.8z"/>
<path style="stroke:none; fill:#b9c7e0" d="M 28 69.6L 28.8 70.4L 28 69.6z"/>
<path style="stroke:none; fill:#a6b3c8" d="M 58.4 69.6L 59.2 70.4L 58.4 69.6z"/>
<path style="stroke:none; fill:#8599c1" d="M 63.2 69.6L 64 70.4L 63.2 69.6z"/>
<path style="stroke:none; fill:#a8b8da" d="M 90.4 69.6L 91.2 70.4L 90.4 69.6z"/>
<path style="stroke:none; fill:#94a2c2" d="M 24.8 70.4L 25.6 71.2L 24.8 70.4z"/>
<path style="stroke:none; fill:#7d91ad" d="M 60 70.4L 60.8 71.2L 60 70.4z"/>
<path style="stroke:none; fill:#8599c1" d="M 64.8 70.4L 65.6 71.2L 64.8 70.4M 91.2 70.4L 92 71.2L 91.2 70.4z"/>
<path style="stroke:none; fill:#7d91ad" d="M 92.8 70.4L 93.6 71.2L 92.8 70.4z"/>
<path style="stroke:none; fill:#a8b8da" d="M 27.2 71.2L 28 72L 27.2 71.2z"/>
<path style="stroke:none; fill:#b9c7e0" d="M 60.8 71.2L 61.6 72L 60.8 71.2z"/>
<path style="stroke:none; fill:#63799f" d="M 61.6 71.2L 62.4 72L 61.6 71.2z"/>
<path style="stroke:none; fill:#94a2c2" d="M 66.4 71.2L 67.2 72L 66.4 71.2z"/>
<path style="stroke:none; fill:#b9c7e0" d="M 93.6 71.2L 94.4 72L 93.6 71.2z"/>
<path style="stroke:none; fill:#a6b3c8" d="M 24 72L 24.8 72.8L 24 72M 62.4 72L 63.2 72.8L 62.4 72z"/>
<path style="stroke:none; fill:#94a2c2" d="M 68 72L 68.8 72.8L 68 72z"/>
<path style="stroke:none; fill:#b9c7e0" d="M 92 72L 92.8 72.8L 92 72z"/>
<path style="stroke:none; fill:#94a2c2" d="M 26.4 72.8L 27.2 73.6L 26.4 72.8M 64 72.8L 64.8 73.6L 64 72.8M 69.6 72.8L 70.4 73.6L 69.6 72.8z"/>
<path style="stroke:none; fill:#8599c1" d="M 92.8 72.8L 93.6 73.6L 92.8 72.8M 94.4 72.8L 95.2 73.6L 94.4 72.8z"/>
<path style="stroke:none; fill:#a8b8da" d="M 23.2 73.6L 24 74.4L 23.2 73.6z"/>
<path style="stroke:none; fill:#7d91ad" d="M 65.6 73.6L 66.4 74.4L 65.6 73.6z"/>
<path style="stroke:none; fill:#94a2c2" d="M 71.2 73.6L 72 74.4L 71.2 73.6z"/>
<path style="stroke:none; fill:#7d91ad" d="M 25.6 74.4L 26.4 75.2L 25.6 74.4M 67.2 74.4L 68 75.2L 67.2 74.4z"/>
<path style="stroke:none; fill:#94a2c2" d="M 72.8 74.4L 73.6 75.2L 72.8 74.4z"/>
<path style="stroke:none; fill:#8599c1" d="M 93.6 74.4L 94.4 75.2L 93.6 74.4z"/>
<path style="stroke:none; fill:#63799f" d="M 95.2 74.4L 96 75.2L 95.2 74.4z"/>
<path style="stroke:none; fill:#7585a9" d="M 68.8 75.2L 69.6 76L 68.8 75.2z"/>
<path style="stroke:none; fill:#8599c1" d="M 74.4 75.2L 75.2 76L 74.4 75.2z"/>
<path style="stroke:none; fill:#7d91ad" d="M 22.4 76L 23.2 76.8L 22.4 76z"/>
<path style="stroke:none; fill:#63799f" d="M 24.8 76L 25.6 76.8L 24.8 76z"/>
<path style="stroke:none; fill:#c3d2f6" d="M 69.6 76L 70.4 76.8L 69.6 76z"/>
<path style="stroke:none; fill:#7d91ad" d="M 70.4 76L 71.2 76.8L 70.4 76z"/>
<path style="stroke:none; fill:#63799f" d="M 76 76L 76.8 76.8L 76 76z"/>
<path style="stroke:none; fill:#7585a9" d="M 94.4 76L 95.2 76.8L 94.4 76z"/>
<path style="stroke:none; fill:#7d91ad" d="M 96 76L 96.8 76.8L 96 76z"/>
<path style="stroke:none; fill:#94a2c2" d="M 72 76.8L 72.8 77.6L 72 76.8z"/>
<path style="stroke:none; fill:#8599c1" d="M 78.4 76.8L 79.2 77.6L 78.4 76.8z"/>
<path style="stroke:none; fill:#c3d2f6" d="M 94.4 76.8L 94.4 79.2L 95.2 79.2C 94.9992 78.0387 94.948 77.7986 94.4 76.8z"/>
<path style="stroke:none; fill:#a6b3c8" d="M 21.6 77.6L 22.4 78.4L 21.6 77.6M 73.6 77.6L 74.4 78.4L 73.6 77.6z"/>
<path style="stroke:none; fill:#b9c7e0" d="M 80.8 77.6L 81.6 78.4L 80.8 77.6M 96.8 77.6L 97.6 78.4L 96.8 77.6z"/>
<path style="stroke:none; fill:#94a2c2" d="M 24 78.4L 24.8 79.2L 24 78.4z"/>
<path style="stroke:none; fill:#a8b8da" d="M 75.2 78.4L 76 79.2L 75.2 78.4z"/>
<path style="stroke:none; fill:#63799f" d="M 76 78.4L 76.8 79.2L 76 78.4z"/>
<path style="stroke:none; fill:#a6b3c8" d="M 82.4 78.4L 83.2 79.2L 82.4 78.4z"/>
<path style="stroke:none; fill:#5b6985" d="M 96.8 78.4L 96.8 80.8L 97.6 80.8C 97.3992 79.6387 97.348 79.3987 96.8 78.4z"/>
<path style="stroke:none; fill:#7585a9" d="M 77.6 79.2L 78.4 80L 77.6 79.2z"/>
<path style="stroke:none; fill:#63799f" d="M 84 79.2L 84.8 80L 84 79.2z"/>
<path style="stroke:none; fill:#a6b3c8" d="M 84.8 79.2L 85.6 80L 84.8 79.2z"/>
<path style="stroke:none; fill:#8599c1" d="M 94.4 79.2L 95.2 80L 94.4 79.2z"/>
<path style="stroke:none; fill:#94a2c2" d="M 20.8 80L 21.6 80.8L 20.8 80M 79.2 80L 80 80.8L 79.2 80M 87.7336 80.2664C 87.3776 80.6224 88.2224 80.5776 88.2664 80.5336C 88.6224 80.1776 87.7776 80.2224 87.7336 80.2664M 93.6 80L 94.4 80.8L 93.6 80z"/>
<path style="stroke:none; fill:#a8b8da" d="M 23.2 80.8L 24 81.6L 23.2 80.8z"/>
<path style="stroke:none; fill:#94a2c2" d="M 81.6 80.8L 82.4 81.6L 81.6 80.8z"/>
<path style="stroke:none; fill:#5b6985" d="M 91.7336 81.0664C 91.3776 81.4224 92.2224 81.3776 92.2664 81.3336C 92.6224 80.9776 91.7776 81.0224 91.7336 81.0664z"/>
<path style="stroke:none; fill:#a6b3c8" d="M 96.8 80.8L 97.6 81.6L 96.8 80.8z"/>
<path style="stroke:none; fill:#b9c7e0" d="M 40.8 81.6L 41.6 82.4L 40.8 81.6z"/>
<path style="stroke:none; fill:#a6b3c8" d="M 83.7336 81.8664C 83.3776 82.2224 84.2224 82.1776 84.2664 82.1336C 84.6224 81.7776 83.7776 81.8224 83.7336 81.8664z"/>
<path style="stroke:none; fill:#475280" d="M 85.3336 81.8664C 84.9776 82.2224 85.8224 82.1776 85.8664 82.1336C 86.2224 81.7776 85.3776 81.8224 85.3336 81.8664z"/>
<path style="stroke:none; fill:#94a2c2" d="M 20 82.4L 20.8 83.2L 20 82.4z"/>
<path style="stroke:none; fill:#63799f" d="M 22.4 82.4L 23.2 83.2L 22.4 82.4z"/>
<path style="stroke:none; fill:#b9c7e0" d="M 39.2 82.4L 40 83.2L 39.2 82.4z"/>
<path style="stroke:none; fill:#7d91ad" d="M 40 82.4L 40.8 83.2L 40 82.4z"/>
<path style="stroke:none; fill:#94a2c2" d="M 86.9336 82.6664C 86.5776 83.0224 87.4224 82.9776 87.4664 82.9336C 87.8224 82.5776 86.9776 82.6224 86.9336 82.6664z"/>
<path style="stroke:none; fill:#5b6985" d="M 88.5336 82.6664C 88.1776 83.0224 89.0224 82.9776 89.0664 82.9336C 89.4224 82.5776 88.5776 82.6224 88.5336 82.6664z"/>
<path style="stroke:none; fill:#7d91ad" d="M 95.2 82.4L 96 83.2L 95.2 82.4z"/>
<path style="stroke:none; fill:#475280" d="M 20.2666 83.7336C 20.2222 83.7776 20.1778 84.6224 20.5334 84.2664C 20.5778 84.2224 20.6222 83.3776 20.2666 83.7336z"/>
<path style="stroke:none; fill:#cfd9ef" d="M 22.6666 83.7336C 22.6222 83.7776 22.5778 84.6224 22.9334 84.2664C 22.9778 84.2224 23.0222 83.3776 22.6666 83.7336z"/>
<path style="stroke:none; fill:#a6b3c8" d="M 38.4 83.2L 39.2 84L 38.4 83.2z"/>
<path style="stroke:none; fill:#5b6985" d="M 39.2 83.2L 40 84L 39.2 83.2z"/>
<path style="stroke:none; fill:#c3d2f6" d="M 89.6 83.2L 89.6 84L 94.4 84C 92.7584 83.3008 91.4024 83.2376 89.6 83.2z"/>
<path style="stroke:none; fill:#8599c1" d="M 37.6 84L 38.4 84.8L 37.6 84z"/>
<path style="stroke:none; fill:#3b4460" d="M 38.4 84L 39.2 84.8L 38.4 84z"/>
<path style="stroke:none; fill:#94a2c2" d="M 19.4666 85.3336C 19.4222 85.3776 19.3778 86.2224 19.7334 85.8664C 19.7778 85.8224 19.8222 84.9776 19.4666 85.3336z"/>
<path style="stroke:none; fill:#7585a9" d="M 36.8 84.8L 37.6 85.6L 36.8 84.8z"/>
<path style="stroke:none; fill:#3b4460" d="M 37.6 84.8L 38.4 85.6L 37.6 84.8z"/>
<path style="stroke:none; fill:#7d91ad" d="M 21.6 85.6L 22.4 86.4L 21.6 85.6z"/>
<path style="stroke:none; fill:#5b6985" d="M 34.4 88.8C 35.802 87.736 36.5358 87.0024 37.6 85.6C 35.8009 86.5232 35.3228 87.0008 34.4 88.8M 19.4666 86.9336C 19.4222 86.9776 19.3778 87.8224 19.7334 87.4664C 19.7778 87.4224 19.8222 86.5776 19.4666 86.9336z"/>
<path style="stroke:none; fill:#c3d2f6" d="M 21.6 86.4L 21.6 91.2L 22.4 91.2C 22.3622 89.3976 22.2994 88.0416 21.6 86.4z"/>
<path style="stroke:none; fill:#b9c7e0" d="M 18.4 88L 18.4 92L 19.2 92C 19.1299 90.4288 19.0231 89.4152 18.4 88z"/>
<path style="stroke:none; fill:#a8b8da" d="M 32.8 88L 33.6 88.8L 32.8 88z"/>
<path style="stroke:none; fill:#3b4460" d="M 33.6 88L 32.8 89.6C 33.8102 88.8232 33.9135 89.0448 33.6 88z"/>
<path style="stroke:none; fill:#7d91ad" d="M 32 88.8L 32.8 89.6L 32 88.8M 33.6 88.8L 34.4 89.6L 33.6 88.8z"/>
<path style="stroke:none; fill:#475280" d="M 28 92L 28 92.8C 30.1926 92.0552 31.2832 91.3448 32.8 89.6C 31.0222 90.248 29.6078 90.9912 28 92z"/>
<path style="stroke:none; fill:#a6b3c8" d="M 32.8 89.6L 33.6 90.4L 32.8 89.6M 29.6 90.4L 30.4 91.2L 29.6 90.4z"/>
<path style="stroke:none; fill:#7585a9" d="M 21.6 91.2L 22.4 92L 21.6 91.2z"/>
<path style="stroke:none; fill:#b9c7e0" d="M 26.4 92L 27.2 92.8L 26.4 92z"/>
<path style="stroke:none; fill:#7585a9" d="M 27.2 92L 28 92.8L 27.2 92z"/>
<path style="stroke:none; fill:#a6b3c8" d="M 29.6 92L 30.4 92.8L 29.6 92z"/>
<path style="stroke:none; fill:#7585a9" d="M 19.2 92.8L 20 93.6L 19.2 92.8z"/>
<path style="stroke:none; fill:#8599c1" d="M 23.2 92.8L 23.2 93.6L 25.6 93.6C 24.6013 93.052 24.3613 93.0008 23.2 92.8z"/>
<path style="stroke:none; fill:#94a2c2" d="M 28 92.8L 28.8 93.6L 28 92.8M 26.4 93.6L 27.2 94.4L 26.4 93.6z"/>
<path style="stroke:none; fill:#5b6985" d="M 20.8 94.4L 20.8 95.2L 24 95.2C 22.7952 94.6536 22.1482 94.5392 20.8 94.4z"/>
<path style="stroke:none; fill:#b9c7e0" d="M 24.5334 94.6664C 24.1778 95.0224 25.0222 94.9776 25.0666 94.9336C 25.4222 94.5776 24.5778 94.6224 24.5334 94.6664z"/>
</g>
</svg>