<!DOCTYPE svg PUBLIC "-//W3C//DTD SVG 20010904//EN" "http://www.w3.org/TR/2001/REC-SVG-20010904/DTD/svg10.dtd">
<svg version="1.0" xmlns="http://www.w3.org/2000/svg" width="131px" height="126px" viewBox="0 0 1310 1260" preserveAspectRatio="xMidYMid meet">
<g id="layer101" fill="#566fa1" stroke="none">
 <path d="M250 1180 c-41 -41 -13 -154 91 -359 l78 -153 -133 -132 c-127 -126 -190 -205 -203 -254 -6 -24 15 -55 50 -74 29 -15 41 5 17 27 -31 28 -24 57 26 126 45 62 191 210 245 250 l27 19 33 -51 c93 -146 280 -358 397 -451 111 -88 182 -99 195 -31 8 40 -2 48 -29 23 -30 -29 -62 -21 -129 29 -117 88 -258 245 -375 416 l-61 90 28 23 c175 142 529 322 633 322 36 0 40 -3 40 -24 0 -28 -76 -144 -102 -157 -10 -5 -26 -13 -35 -18 -23 -11 -23 -51 0 -65 15 -9 22 -7 38 13 10 12 16 27 13 32 -3 5 17 34 44 63 46 51 71 92 86 143 9 30 -25 63 -65 63 -119 0 -420 -146 -638 -309 -30 -23 -57 -41 -61 -41 -11 0 -78 126 -125 236 -36 82 -48 123 -49 164 -1 50 1 55 21 58 21 3 65 -25 160 -103 57 -46 45 -8 -14 45 -54 48 -141 100 -170 100 -7 0 -22 -9 -33 -20z"/>
 </g>

</svg>