<?xml version="1.0" encoding="utf-8"?>
<!-- Generator: Adobe Illustrator 22.0.1, SVG Export Plug-In . SVG Version: 6.00 Build 0)  -->
<svg version="1.1" id="Layer_1" xmlns="http://www.w3.org/2000/svg" xmlns:xlink="http://www.w3.org/1999/xlink" x="0px" y="0px"
	 viewBox="0 0 841.9 595.3" style="enable-background:new 0 0 841.9 595.3;" xml:space="preserve">
<style type="text/css">
	.st0{fill:#4B4F54;}
	.st1{fill:#78BE20;}
	.st2{fill:#41B6E6;}
</style>
<g>
	<g>
		<g>
			<g>
				<g>
					<path class="st0" d="M198.4,280.4v38.8c-10.7,7.5-27.5,12.9-41.4,12.9c-30.3,0-53.2-21.9-53.2-50.9c0-28.9,23.5-50.7,54.9-50.7
						c14.8,0,30.4,5.7,40.7,14.8l-14.2,17.2c-7.3-6.7-17.4-10.8-26.6-10.8c-16.4,0-28.9,12.8-28.9,29.5c0,16.9,12.7,29.7,29.2,29.7
						c5.1,0,11.7-1.9,17.6-4.8v-25.8H198.4z"/>
					<path class="st0" d="M293.3,292.6c0,23.6-16.8,39.3-41.8,39.3c-25.2,0-42-15.7-42-39.3c0-23.6,16.8-39.1,42-39.1
						C276.5,253.5,293.3,269,293.3,292.6z M234.2,292.9c0,12,7,19.9,17.2,19.9c10.1,0,17.1-8,17.1-19.9c0-11.8-7-19.9-17.1-19.9
						C241.2,273,234.2,281.1,234.2,292.9z"/>
					<path class="st0" d="M383.9,292.6c0,23.6-16.8,39.3-41.8,39.3c-25.2,0-42-15.7-42-39.3c0-23.6,16.8-39.1,42-39.1
						C367.1,253.5,383.9,269,383.9,292.6z M324.9,292.9c0,12,7,19.9,17.2,19.9c10.1,0,17.1-8,17.1-19.9c0-11.8-7-19.9-17.1-19.9
						C331.9,273,324.9,281.1,324.9,292.9z"/>
					<path class="st0" d="M474.4,331h-24.6v-10.1c-5.4,7.1-13.2,11.1-23.1,11.1c-21.6,0-35.9-15.9-35.9-39.7c0-23.5,14.1-39,35.3-39
						c10.1,0,18.2,4,23.6,11.1v-39h24.6V331z M449.8,292.9c0-11.8-6.8-19.9-17.1-19.9c-10.2,0-17.1,8.1-17.2,19.9
						c0.1,11.8,7,20.1,17.2,20.1C443,313,449.8,304.7,449.8,292.9z"/>
					<path class="st0" d="M549.3,320.2V331h-55.1v-99.6h11.4v88.8H549.3z"/>
					<path class="st0" d="M578.9,234.6c0,4.4-3.1,7.7-7.3,7.7c-4.1,0-7.3-3.3-7.3-7.7s3.1-7.7,7.3-7.7
						C575.8,226.9,578.9,230.2,578.9,234.6z M566.2,331v-75h11v75H566.2z"/>
					<path class="st0" d="M617.5,248.7v9.7H639v9.1h-21.5V331h-11v-63.6h-9.7v-9.1h9.7v-8.3c0-16.4,11.5-25.2,24-25.2
						c5.7,0.1,11.5,1.8,16.1,5.3l-4.6,9c-3.4-2.4-7.5-3.8-11.4-3.8C623.4,235.3,617.5,240,617.5,248.7z"/>
					<path class="st0" d="M713.5,297.9h-61.2c2,14.7,12.7,23.9,27.2,23.9c9.2,0,17.4-3.3,23.2-9.4l6.1,6.5
						c-7.1,8-17.6,12.5-30.2,12.5c-22.1,0-37.3-15.5-37.3-37.8c0-22.3,15.4-37.8,37.1-37.8C702.7,255.6,714.7,272.4,713.5,297.9z
						 M703.6,288.8c-0.7-14.4-10.4-23.5-25-23.5c-14.2,0-24.5,9.2-26.2,23.5H703.6z"/>
				</g>
			</g>
		</g>
		<g>
			<path class="st0" d="M527.1,376.5l-2.7,3.4c-2.5-2.3-5.8-3.8-9.7-3.8c-6.7,0-11.6,4.9-11.6,12c0,7.1,4.8,12.1,11.6,12.1
				c4.3,0,7.8-1.5,10.1-4.2l2.8,3c-2.9,3.5-7.4,5.6-13.1,5.6c-9.5,0-16.1-6.7-16.1-16.5c0-9.7,6.7-16.5,16.1-16.5
				C519.8,371.6,524.1,373.4,527.1,376.5z"/>
			<path class="st0" d="M549.1,404.4v-45.9h4.8v45.9H549.1z"/>
			<path class="st0" d="M583.8,362.4c0,1.9-1.4,3.3-3.2,3.3s-3.2-1.4-3.2-3.3c0-1.9,1.4-3.3,3.2-3.3S583.8,360.5,583.8,362.4z
				 M578.3,404.4v-32.6h4.8v32.6H578.3z"/>
			<path class="st0" d="M637,384.3v20.1h-4.8v-18.8c0-5.8-3.5-9.2-9.2-9.2c-6.4,0.1-10.4,4.3-10.9,10.4v17.5h-4.8v-32.6h4.8v7.2
				c2.3-4.9,6.7-7.3,12.6-7.4C632.5,371.6,637,376.4,637,384.3z"/>
			<path class="st0" d="M665.7,362.4c0,1.9-1.4,3.3-3.2,3.3s-3.2-1.4-3.2-3.3c0-1.9,1.4-3.3,3.2-3.3S665.7,360.5,665.7,362.4z
				 M660.2,404.4v-32.6h4.8v32.6H660.2z"/>
			<path class="st0" d="M714.5,376.5l-2.7,3.4c-2.5-2.3-5.8-3.8-9.7-3.8c-6.7,0-11.6,4.9-11.6,12c0,7.1,4.8,12.1,11.6,12.1
				c4.3,0,7.8-1.5,10.1-4.2l2.8,3c-2.9,3.5-7.4,5.6-13.1,5.6c-9.5,0-16.1-6.7-16.1-16.5c0-9.7,6.7-16.5,16.1-16.5
				C707.2,371.6,711.5,373.4,714.5,376.5z"/>
		</g>
		<g>
			<g>
				<path class="st1" d="M362.9,185.3c-0.9-0.4-2.3-1.1-4-1.6c-1.7-0.5-4-1.3-6.4-1.5c-2.4-0.2-5.1-0.3-8-0.2
					c-2.9,0.2-5.8,0.8-8.9,1.6c-3.1,0.8-6,2.1-9,3.6c-3,1.5-5.7,3.4-8.4,5.5c-2.6,2.1-5,4.5-7.2,7c-2.1,2.6-4.1,5.2-5.7,8
					c-1.6,2.8-3,5.7-4.1,8.6c-2.2,5.8-3,11.8-3.1,17.2c0,2.7,0.2,5.2,0.5,7.5c0.3,2.3,0.9,4.4,1.3,6.1c0.2,0.8,0.4,1.6,0.7,2.3
					c0.4-0.9,0.9-1.9,1.4-2.9c2.6-5.2,6.5-12,11-18.4c2.2-3.2,4.7-6.2,7.1-9c1.3-1.3,2.5-2.6,3.6-3.8c1.2-1.1,2.4-2.2,3.5-3.1
					c1.2-0.9,2.2-1.7,3.2-2.4c0.9-0.8,1.9-1.2,2.6-1.6c1.5-0.9,2.3-1.3,2.3-1.3s-0.8,0.6-2.2,1.5c-0.7,0.5-1.6,1-2.4,1.8
					c-0.9,0.8-1.9,1.6-2.9,2.6c-1,1-2.1,2.2-3.2,3.4c-1,1.3-2.1,2.6-3.3,4c-2.1,2.9-4.3,6-6.2,9.3c-3.9,6.6-7.1,13.5-9.3,18.8
					c-0.6,1.5-1.1,2.8-1.6,4c0.9-0.2,2.1-0.5,3.4-1c1.6-0.6,3.7-1.1,5.7-2c2.1-0.8,4.3-1.7,6.5-2.8c2.3-1,4.4-2.3,6.7-3.6
					c2.2-1.3,4.4-2.8,6.5-4.3c2.1-1.6,4.1-3.2,5.9-4.9c1.8-1.8,3.7-3.5,5.3-5.5c3.3-3.8,6.1-7.8,8.3-12c1.2-2,2.2-4.3,3.1-6.4
					c1-2.1,1.8-4.4,2.6-6.5c0.8-2.1,1.6-4.2,2.3-6.2c0.7-2.1,1.4-4,1.9-5.5c0.6-1.5,1-3.1,1.4-4c0.3-1,0.5-1.6,0.5-1.6
					S363.9,185.7,362.9,185.3z"/>
				<path class="st2" d="M286.2,234.6c-3.2-2.2-6.2-4.7-9-7.1c-1.3-1.3-2.6-2.5-3.8-3.6c-1.1-1.2-2.2-2.4-3.1-3.5
					c-0.9-1.2-1.7-2.2-2.4-3.2c-0.8-0.9-1.2-1.9-1.6-2.6c-0.9-1.4-1.3-2.3-1.3-2.3s0.6,0.8,1.5,2.2c0.5,0.7,1,1.6,1.8,2.4
					c0.8,0.9,1.6,1.9,2.6,2.9c1,1,2.2,2.1,3.4,3.2c1.3,1,2.6,2.1,4,3.3c2.9,2.1,6,4.3,9.3,6.2c1.4,0.8,2.7,1.5,4.1,2.3
					c0.5-7.4,2-14.6,4.2-21.2c-1.3-1.7-2.6-3.3-4.1-4.8c-1.8-1.8-3.5-3.7-5.5-5.3c-3.8-3.3-7.8-6.1-12-8.3c-2-1.2-4.3-2.2-6.4-3.1
					c-2.1-1-4.4-1.8-6.5-2.6c-2.1-0.8-4.2-1.6-6.3-2.3c-2.1-0.7-4-1.4-5.5-1.9c-1.5-0.6-3.1-1-4-1.4c-1-0.3-1.6-0.5-1.6-0.5
					s-0.3,0.5-0.7,1.4c-0.4,0.9-1.1,2.3-1.6,4c-0.5,1.7-1.3,4-1.5,6.3c-0.3,2.4-0.3,5.1-0.2,8c0.2,2.9,0.8,5.8,1.6,8.9
					c0.8,3.1,2.1,6,3.6,9c1.5,3,3.4,5.7,5.5,8.4c2.1,2.6,4.5,5,7,7.2c2.6,2.1,5.2,4.1,8,5.7c2.8,1.6,5.7,3,8.6,4.1
					c5.8,2.2,11.8,3.1,17.2,3.1c0.2,0,0.4,0,0.6,0c-0.6-3.7-0.8-7.6-0.7-11.4C289.8,236.9,288,235.8,286.2,234.6z"/>
			</g>
		</g>
	</g>
</g>
</svg>
